{"data":{"gids":[1284510,2680835,3597117,1139879,4085503,2733028,3159919,1142893,1593553,1257858],"offers":[{"gid":1284510,"featureScore":9.954757,"score":2.9664574},{"gid":2680835,"featureScore":10.000009,"score":2.9659927},{"gid":3597117,"featureScore":9.844975,"score":2.942231},{"gid":1139879,"featureScore":9.89749,"score":2.9309518},{"gid":4085503,"featureScore":10.0,"score":2.8775594},{"gid":2733028,"featureScore":10.000009,"score":2.8233507},{"gid":3159919,"featureScore":10.000009,"score":2.8140562},{"gid":1142893,"featureScore":9.836119,"score":2.7764761},{"gid":1593553,"featureScore":9.404821,"score":2.7567177},{"gid":1257858,"featureScore":9.700066,"score":2.751587}],"pagination":{"currentPage":1,"totalPages":32,"totalCount":320},"searchQuery":"{\"from\":0,\"size\":10,\"query\":{\"function_score\":{\"query\":{\"bool\":{\"must\":[{\"match_all\":{\"boost\":1.0}}],\"filter\":[{\"term\":{\"isoCode\":{\"value\":\"KR\",\"boost\":1.0}}},{\"bool\":{\"should\":[{\"geo_distance\":{\"centerPosition\":[126.45092,37.448425],\"distance\":20000.0,\"distance_type\":\"arc\",\"validation_method\":\"STRICT\",\"ignore_unmapped\":false,\"boost\":1.0}}],\"adjust_pure_negative\":true,\"boost\":1.0}}],\"adjust_pure_negative\":true,\"boost\":1.0}},\"functions\":[{\"filter\":{\"match_all\":{\"boost\":1.0}},\"field_value_factor\":{\"field\":\"featureScore\",\"factor\":1.0,\"modifier\":\"none\"}},{\"filter\":{\"bool\":{\"filter\":[{\"terms\":{\"regions.id\":[28636],\"boost\":1.0}}],\"adjust_pure_negative\":true,\"boost\":1.0}},\"weight\":1.3},{\"filter\":{\"match_all\":{\"boost\":1.0}},\"gauss\":{\"centerPosition\":{\"origin\":{\"lat\":37.448425,\"lon\":126.45092},\"scale\":\"10km\",\"offset\":\"5km\",\"decay\":0.3},\"multi_value_mode\":\"MIN\"}}],\"score_mode\":\"multiply\",\"max_boost\":3.4028235E38,\"boost\":1.0}},\"post_filter\":{\"bool\":{\"filter\":[{\"bool\":{\"adjust_pure_negative\":true,\"boost\":1.0}}],\"adjust_pure_negative\":true,\"boost\":1.0}},\"min_score\":1.0,\"_source\":{\"includes\":[\"id\",\"gpid\",\"name\",\"_score\",\"cityName\",\"countryName\",\"mrtCountry\",\"mrtCityList\",\"rankingScore\",\"regions\",\"gid\",\"gids\",\"timezoneName\",\"centerPosition\",\"specialOffer\",\"representGid\"],\"excludes\":[]},\"sort\":[{\"_score\":{\"order\":\"desc\"}}],\"aggregations\":{\"aggs_stay_type\":{\"terms\":{\"field\":\"stayType\",\"size\":100,\"min_doc_count\":1,\"shard_min_doc_count\":0,\"show_term_doc_count_error\":false,\"order\":[{\"_count\":\"desc\"},{\"_key\":\"asc\"}]}},\"aags_special_offer\":{\"terms\":{\"field\":\"specialOffer\",\"size\":100,\"min_doc_count\":1,\"shard_min_doc_count\":0,\"show_term_doc_count_error\":false,\"order\":[{\"_count\":\"desc\"},{\"_key\":\"asc\"}]}},\"aggs_stay_top_cities\":{\"terms\":{\"field\":\"mrtCityList.keyName\",\"size\":10,\"min_doc_count\":1,\"shard_min_doc_count\":0,\"show_term_doc_count_error\":false,\"order\":[{\"_count\":\"desc\"},{\"_key\":\"asc\"}]}},\"aggs_star_rating\":{\"filter\":{\"terms\":{\"categories\":[\"HOTEL_V2\",\"CAPSULE_HOTEL\",\"APARTHOTEL\",\"RESORT_V2\",\"CONDOMINIUM_RESORT\",\"CONDO\",\"ALL_INCLUSIVE_PROPERTY\"],\"boost\":1.0}},\"aggregations\":{\"aggs_hotel_resort\":{\"terms\":{\"field\":\"starRating\",\"size\":100,\"min_doc_count\":1,\"shard_min_doc_count\":0,\"show_term_doc_count_error\":false,\"order\":[{\"_count\":\"desc\"},{\"_key\":\"asc\"}]}}}},\"aags_stay_review_rating\":{\"range\":{\"field\":\"stayReviewRating\",\"ranges\":[{\"key\":\"4.0\",\"from\":4.0},{\"key\":\"4.5\",\"from\":4.5},{\"key\":\"3.5\",\"from\":3.5}],\"keyed\":false}},\"aags_stay_room_view\":{\"terms\":{\"field\":\"stayRoomView\",\"size\":100,\"min_doc_count\":1,\"shard_min_doc_count\":0,\"show_term_doc_count_error\":false,\"order\":[{\"_count\":\"desc\"},{\"_key\":\"asc\"}]}},\"aggs_stay_top_categories\":{\"terms\":{\"field\":\"categories\",\"size\":10,\"min_doc_count\":1,\"shard_min_doc_count\":0,\"show_term_doc_count_error\":false,\"order\":[{\"_count\":\"desc\"},{\"_key\":\"asc\"}]}},\"aggs_stay_service\":{\"terms\":{\"field\":\"stayService\",\"size\":100,\"min_doc_count\":1,\"shard_min_doc_count\":0,\"show_term_doc_count_error\":false,\"order\":[{\"_count\":\"desc\"},{\"_key\":\"asc\"}]}},\"aags_stay_category_group\":{\"terms\":{\"field\":\"stayCategoryGroup\",\"size\":100,\"min_doc_count\":1,\"shard_min_doc_count\":0,\"show_term_doc_count_error\":false,\"order\":[{\"_count\":\"desc\"},{\"_key\":\"asc\"}]}},\"aags_stay_room_attr\":{\"terms\":{\"field\":\"stayRoomAttr\",\"size\":100,\"min_doc_count\":1,\"shard_min_doc_count\":0,\"show_term_doc_count_error\":false,\"order\":[{\"_count\":\"desc\"},{\"_key\":\"asc\"}]}}}}"},"meta":{},"result":{"status":200,"message":"SUCCESS","code":"success"}}